1234567898765432
bcd4586023489459
2398424785895485
4756345653656346
7675678457456234
5467546634634643
4363453245674867
6346567754634667
3425255672345436
2352354654656546
2356256463435656
6546346345345656
7575644564346657
6785675412321356
2352535334566355
5346473467435634
7567546456345623
5746746345653225
5754754643525256
7875645454535466
3545567123190897
6965677867555769
5742786426842897
5468044690546328
9785675676899432
2524684685667857
3576857786845667
6868567456325678
5742234899668468
8489433621579046
5467689474646868
8425799705745789

